C:\Users\sansingh\repos\fenergoautomation\CBAFenergoAutomation\src\main\java\Learning.java
C:\Users\sansingh\repos\fenergoautomation\CBAFenergoAutomation\src\main\java\CompareExcel.java
C:\Users\sansingh\repos\fenergoautomation\CBAFenergoAutomation\src\main\java\TestNgParallel.java
C:\Users\sansingh\repos\fenergoautomation\CBAFenergoAutomation\src\main\java\CompareExcelValues.java
